EESchema Schematic File Version 4
LIBS:occ-cache
EELAYER 26 0
EELAYER END
$Descr A4 11693 8268
encoding utf-8
Sheet 1 1
Title "Open Cycling Computer"
Date "WORK IN PROGRESS"
Rev "v0.02"
Comp ""
Comment1 ""
Comment2 ""
Comment3 ""
Comment4 "CC-BY-SA"
$EndDescr
$Comp
L occ-rescue:raspberry-pi-zero-w-RESCUE-occ RPI1
U 1 1 5BA78832
P 2675 4525
F 0 "RPI1" H 2700 5600 60  0000 C CNN
F 1 "raspberry-pi-zero-w" H 2700 5525 60  0000 C CNN
F 2 "" H 2450 5100 60  0001 C CNN
F 3 "" H 2450 5100 60  0001 C CNN
	1    2675 4525
	1    0    0    -1  
$EndComp
$Comp
L occ-rescue:adafruit-pitft-2.8-res-RESCUE-occ PiTFT_320x240
U 1 1 5BA7D28E
P 2725 6375
F 0 "PiTFT_320x240" H 2700 6700 60  0000 C CNN
F 1 "adafruit-pitft-2.8-res" H 2700 6625 60  0000 C CNN
F 2 "" H 2500 6950 60  0001 C CNN
F 3 "" H 2500 6950 60  0001 C CNN
	1    2725 6375
	1    0    0    -1  
$EndComp
$Comp
L occ:pimoroni-lipo-shim LIPO-SHIM1
U 1 1 5BA7F39B
P 2675 2675
F 0 "LIPO-SHIM1" H 2700 2300 60  0000 C CNN
F 1 "pimoroni-lipo-shim" H 2700 2400 60  0000 C CNN
F 2 "" H 2550 2300 60  0001 C CNN
F 3 "" H 2550 2300 60  0001 C CNN
	1    2675 2675
	1    0    0    1   
$EndComp
Wire Wire Line
	3850 6325 3850 4625
Wire Wire Line
	3750 6425 3750 4725
Wire Wire Line
	3650 6525 3650 4825
Wire Wire Line
	3650 6525 3475 6525
Wire Wire Line
	3750 6425 3475 6425
Wire Wire Line
	3850 6325 3475 6325
Wire Wire Line
	3950 6225 3475 6225
Wire Wire Line
	1600 4525 1600 6225
Wire Wire Line
	1600 6225 1900 6225
Wire Wire Line
	1900 6425 1800 6425
Wire Wire Line
	1700 4625 1700 6325
Wire Wire Line
	1700 6325 1900 6325
Wire Wire Line
	1875 4525 1600 4525
Wire Wire Line
	1875 4625 1700 4625
Wire Wire Line
	1800 4725 1875 4725
Wire Wire Line
	1800 6425 1800 4725
$Comp
L occ-rescue:Battery LIPO-BATT1
U 1 1 5BA80810
P 9325 2075
F 0 "LIPO-BATT1" H 9075 1800 50  0000 L CNN
F 1 "2500mAh LiPo, 3.7V" H 9075 1700 50  0000 L CNN
F 2 "" V 9325 2135 50  0001 C CNN
F 3 "" V 9325 2135 50  0001 C CNN
	1    9325 2075
	-1   0    0    -1  
$EndComp
Text Notes 2000 5975 0    60   ~ 0
Common 2x20 header with RPI
Text Notes 2025 2225 0    60   ~ 0
Common 2x20 header with RPI
$Comp
L occ:bmp_280 bmp_280-1
U 1 1 5BFA8DC4
P 6675 3875
F 0 "bmp_280-1" H 6725 4025 60  0000 C CNN
F 1 "bmp_280" H 6700 3925 60  0000 C CNN
F 2 "" H 6525 3850 60  0001 C CNN
F 3 "" H 6525 3850 60  0001 C CNN
	1    6675 3875
	-1   0    0    -1  
$EndComp
$Comp
L occ:ds3231 ds3231-1
U 1 1 5BFA9620
P 9000 3800
F 0 "ds3231-1" H 9050 3950 60  0000 C CNN
F 1 "ds3231" H 9025 3850 60  0000 C CNN
F 2 "" H 8850 3775 60  0001 C CNN
F 3 "" H 8850 3775 60  0001 C CNN
	1    9000 3800
	-1   0    0    -1  
$EndComp
Wire Wire Line
	3950 4425 3950 6225
NoConn ~ 7275 3675
NoConn ~ 1875 5525
NoConn ~ 1875 5425
NoConn ~ 1875 5325
NoConn ~ 1875 5225
NoConn ~ 1875 5125
NoConn ~ 1875 5025
NoConn ~ 1875 4925
NoConn ~ 1875 4825
NoConn ~ 1875 4425
NoConn ~ 1875 4325
NoConn ~ 1875 4225
NoConn ~ 1875 4125
NoConn ~ 1875 4025
$Comp
L power:GND #PWR0104
U 1 1 5C6B2A50
P 3475 2825
F 0 "#PWR0104" H 3475 2575 50  0001 C CNN
F 1 "GND" H 3480 2652 50  0000 C CNN
F 2 "" H 3475 2825 50  0001 C CNN
F 3 "" H 3475 2825 50  0001 C CNN
	1    3475 2825
	1    0    0    -1  
$EndComp
$Comp
L power:GND #PWR0107
U 1 1 5C6BF16C
P 3800 3875
F 0 "#PWR0107" H 3800 3625 50  0001 C CNN
F 1 "GND" H 3805 3702 50  0000 C CNN
F 2 "" H 3800 3875 50  0001 C CNN
F 3 "" H 3800 3875 50  0001 C CNN
	1    3800 3875
	1    0    0    -1  
$EndComp
$Comp
L power:VCC #PWR0108
U 1 1 5C6BF1E2
P 3800 3575
F 0 "#PWR0108" H 3800 3425 50  0001 C CNN
F 1 "VCC" H 3817 3748 50  0000 C CNN
F 2 "" H 3800 3575 50  0001 C CNN
F 3 "" H 3800 3575 50  0001 C CNN
	1    3800 3575
	1    0    0    -1  
$EndComp
Wire Wire Line
	3800 3625 3525 3625
Wire Wire Line
	3525 3825 3800 3825
NoConn ~ 3525 4025
NoConn ~ 3525 4125
NoConn ~ 3525 4225
NoConn ~ 3525 4325
NoConn ~ 3525 4525
NoConn ~ 3525 4925
NoConn ~ 3525 5025
NoConn ~ 3525 5125
NoConn ~ 3525 5225
NoConn ~ 3525 5325
NoConn ~ 3525 5425
NoConn ~ 3525 5525
Wire Wire Line
	3525 4425 3950 4425
Wire Wire Line
	3525 4625 3850 4625
Wire Wire Line
	3525 4725 3750 4725
Wire Wire Line
	3525 4825 3650 4825
NoConn ~ 3525 3725
NoConn ~ 3525 3925
$Comp
L power:+5V #PWR0101
U 1 1 5C711148
P 3475 2525
F 0 "#PWR0101" H 3475 2375 50  0001 C CNN
F 1 "+5V" H 3490 2698 50  0000 C CNN
F 2 "" H 3475 2525 50  0001 C CNN
F 3 "" H 3475 2525 50  0001 C CNN
	1    3475 2525
	1    0    0    -1  
$EndComp
$Comp
L Connector:Conn_01x02_Female JST-BATT1
U 1 1 5C726E7D
P 8725 2025
F 0 "JST-BATT1" H 8525 2400 50  0000 C CNN
F 1 "JST 2 pin" H 8550 2325 50  0000 C CNN
F 2 "" H 8725 2025 50  0001 C CNN
F 3 "~" H 8725 2025 50  0001 C CNN
	1    8725 2025
	-1   0    0    -1  
$EndComp
Wire Wire Line
	8925 2025 9050 2025
Wire Wire Line
	9175 2025 9175 1875
Wire Wire Line
	9175 1875 9325 1875
Wire Wire Line
	8925 2125 9050 2125
Wire Wire Line
	9175 2125 9175 2275
Wire Wire Line
	9175 2275 9325 2275
$Comp
L Connector:Conn_01x02_Male JST-BATT3
U 1 1 5C73070E
P 5825 1950
F 0 "JST-BATT3" H 5975 2300 50  0000 C CNN
F 1 "JST 2 pin" H 5950 2200 50  0000 C CNN
F 2 "" H 5825 1950 50  0001 C CNN
F 3 "~" H 5825 1950 50  0001 C CNN
	1    5825 1950
	1    0    0    -1  
$EndComp
$Comp
L Connector:Conn_01x02_Female JST-BATT4
U 1 1 5C742BB2
P 3675 2625
F 0 "JST-BATT4" H 3775 2975 50  0000 C CNN
F 1 "JST 2 pin" H 3750 2875 50  0000 C CNN
F 2 "" H 3675 2625 50  0001 C CNN
F 3 "~" H 3675 2625 50  0001 C CNN
	1    3675 2625
	1    0    0    -1  
$EndComp
Text GLabel 9600 3700 2    60   Input ~ 0
SCL
Text GLabel 7275 3775 2    60   Input ~ 0
SCL
Text GLabel 1875 3825 0    60   Output ~ 0
SCL
Text GLabel 1875 3725 0    60   BiDi ~ 0
SDA
Text GLabel 7275 3975 2    60   BiDi ~ 0
SDA
Text GLabel 9600 3600 2    60   BiDi ~ 0
SDA
Text GLabel 1925 2825 0    60   Input ~ 0
3v3
Text GLabel 1875 3625 0    60   Input ~ 0
3v3
Text GLabel 1875 3925 0    60   Input ~ 0
BCM_4
Text GLabel 1925 2725 0    60   Input ~ 0
BCM_4
$Comp
L occ:lipo-charger usb-charger1
U 1 1 5C75C2FC
P 6725 2100
F 0 "usb-charger1" H 6725 1750 60  0000 C CNN
F 1 "lipo-charger" H 6725 1650 60  0000 C CNN
F 2 "" H 6800 2075 60  0001 C CNN
F 3 "" H 6800 2075 60  0001 C CNN
	1    6725 2100
	-1   0    0    1   
$EndComp
NoConn ~ 6025 2150
NoConn ~ 6025 2250
NoConn ~ 1925 2525
NoConn ~ 1925 2625
NoConn ~ 7425 2150
NoConn ~ 7425 2250
NoConn ~ 6875 2500
NoConn ~ 6775 2500
NoConn ~ 6675 2500
NoConn ~ 6575 2500
Text GLabel 9000 1900 0    60   Input ~ 0
BATT+
Text GLabel 9000 2225 0    60   Input ~ 0
BATT-
Wire Wire Line
	9000 2225 9050 2225
Wire Wire Line
	9050 2225 9050 2125
Connection ~ 9050 2125
Wire Wire Line
	9050 2125 9175 2125
Wire Wire Line
	9000 1900 9050 1900
Wire Wire Line
	9050 1900 9050 2025
Connection ~ 9050 2025
Wire Wire Line
	9050 2025 9175 2025
Text GLabel 7650 1825 2    60   Input ~ 0
BATT+
Text GLabel 7650 2100 2    60   Input ~ 0
BATT-
Wire Wire Line
	7425 2050 7425 2100
Wire Wire Line
	7425 1950 7425 1825
Wire Wire Line
	7425 1825 7650 1825
Text GLabel 5775 1875 0    60   Input ~ 0
BATT1+
Text GLabel 5775 2100 0    60   Input ~ 0
BATT1-
Wire Wire Line
	5775 1875 6025 1875
Wire Wire Line
	6025 1875 6025 1950
Connection ~ 6025 1950
Wire Wire Line
	5775 2100 6025 2100
Wire Wire Line
	6025 2100 6025 2050
Connection ~ 6025 2050
Text GLabel 3725 2575 2    60   Input ~ 0
BATT1+
Text GLabel 3725 2775 2    60   Input ~ 0
BATT1-
Wire Wire Line
	3725 2775 3475 2775
Wire Wire Line
	3475 2775 3475 2725
Connection ~ 3475 2725
Wire Wire Line
	3475 2625 3475 2575
Wire Wire Line
	3475 2575 3725 2575
Connection ~ 3475 2625
Connection ~ 7425 2050
Connection ~ 7425 1950
$Comp
L Connector:Conn_01x02_Male JST-BATT2
U 1 1 5C77893A
P 7625 1950
F 0 "JST-BATT2" H 7725 2250 50  0000 C CNN
F 1 "JST 2 pin" H 7750 2150 50  0000 C CNN
F 2 "" H 7625 1950 50  0001 C CNN
F 3 "~" H 7625 1950 50  0001 C CNN
	1    7625 1950
	-1   0    0    -1  
$EndComp
Wire Wire Line
	7425 2100 7650 2100
$Comp
L power:GNDPWR #PWR0114
U 1 1 5C71C3DB
P 4150 3850
F 0 "#PWR0114" H 4150 3650 50  0001 C CNN
F 1 "GNDPWR" H 4154 3696 50  0000 C CNN
F 2 "" H 4150 3800 50  0001 C CNN
F 3 "" H 4150 3800 50  0001 C CNN
	1    4150 3850
	1    0    0    -1  
$EndComp
$Comp
L power:PWR_FLAG #FLG0101
U 1 1 5C711609
P 4150 3575
F 0 "#FLG0101" H 4150 3650 50  0001 C CNN
F 1 "PWR_FLAG" H 4150 3749 50  0000 C CNN
F 2 "" H 4150 3575 50  0001 C CNN
F 3 "~" H 4150 3575 50  0001 C CNN
	1    4150 3575
	1    0    0    -1  
$EndComp
Wire Wire Line
	3800 3575 3800 3625
Wire Wire Line
	3800 3625 4150 3625
Connection ~ 3800 3625
Wire Wire Line
	4150 3625 4150 3575
Wire Wire Line
	3800 3825 4150 3825
Connection ~ 3800 3825
Wire Wire Line
	4150 3850 4150 3825
Wire Wire Line
	3800 3875 3800 3825
$Comp
L power:GND #PWR0102
U 1 1 5C7C1022
P 7325 4175
F 0 "#PWR0102" H 7325 3925 50  0001 C CNN
F 1 "GND" H 7330 4002 50  0000 C CNN
F 2 "" H 7325 4175 50  0001 C CNN
F 3 "" H 7325 4175 50  0001 C CNN
	1    7325 4175
	-1   0    0    -1  
$EndComp
$Comp
L power:VCC #PWR0105
U 1 1 5C7C1043
P 7325 3575
F 0 "#PWR0105" H 7325 3425 50  0001 C CNN
F 1 "VCC" H 7342 3748 50  0000 C CNN
F 2 "" H 7325 3575 50  0001 C CNN
F 3 "" H 7325 3575 50  0001 C CNN
	1    7325 3575
	-1   0    0    -1  
$EndComp
Wire Wire Line
	7325 3575 7275 3575
Wire Wire Line
	7275 4175 7325 4175
NoConn ~ 7275 4075
NoConn ~ 7275 3875
$Comp
L power:GND #PWR?
U 1 1 5C6B9FA4
P 9675 4200
F 0 "#PWR?" H 9675 3950 50  0001 C CNN
F 1 "GND" H 9680 4027 50  0000 C CNN
F 2 "" H 9675 4200 50  0001 C CNN
F 3 "" H 9675 4200 50  0001 C CNN
	1    9675 4200
	-1   0    0    -1  
$EndComp
$Comp
L power:VCC #PWR?
U 1 1 5C6B9FC5
P 9675 3500
F 0 "#PWR?" H 9675 3350 50  0001 C CNN
F 1 "VCC" H 9692 3673 50  0000 C CNN
F 2 "" H 9675 3500 50  0001 C CNN
F 3 "" H 9675 3500 50  0001 C CNN
	1    9675 3500
	-1   0    0    -1  
$EndComp
Wire Wire Line
	9675 3500 9600 3500
Wire Wire Line
	9600 4200 9675 4200
NoConn ~ 9600 3800
NoConn ~ 9600 3900
NoConn ~ 9600 4000
NoConn ~ 9600 4100
$EndSCHEMATC
